%YAML 1.1
%TAG !u! tag:unity3d.com,2011:
--- !u!1001 &1729495166124772333
PrefabInstance:
  m_ObjectHideFlags: 0
  serializedVersion: 2
  m_Modification:
    m_TransformParent: {fileID: 0}
    m_Modifications:
    - target: {fileID: 924275571107826644, guid: 4dd4c126fe5c55c48ad8faa0962b25a6,
        type: 3}
      propertyPath: tortaPos
      value: 
      objectReference: {fileID: 8132880210028856996}
    - target: {fileID: 1055068417404856396, guid: 4dd4c126fe5c55c48ad8faa0962b25a6,
        type: 3}
      propertyPath: puntoDisparo
      value: 
      objectReference: {fileID: 8849783683707994867, guid: 152a0cfe4b0f25444b39df3a79cb9383,
        type: 3}
    - target: {fileID: 1584073701793361349, guid: 4dd4c126fe5c55c48ad8faa0962b25a6,
        type: 3}
      propertyPath: m_RootOrder
      value: 0
      objectReference: {fileID: 0}
    - target: {fileID: 1584073701793361349, guid: 4dd4c126fe5c55c48ad8faa0962b25a6,
        type: 3}
      propertyPath: m_LocalPosition.x
      value: 92.48533
      objectReference: {fileID: 0}
    - target: {fileID: 1584073701793361349, guid: 4dd4c126fe5c55c48ad8faa0962b25a6,
        type: 3}
      propertyPath: m_LocalPosition.y
      value: 122.1568
      objectReference: {fileID: 0}
    - target: {fileID: 1584073701793361349, guid: 4dd4c126fe5c55c48ad8faa0962b25a6,
        type: 3}
      propertyPath: m_LocalPosition.z
      value: 218.02434
      objectReference: {fileID: 0}
    - target: {fileID: 1584073701793361349, guid: 4dd4c126fe5c55c48ad8faa0962b25a6,
        type: 3}
      propertyPath: m_LocalRotation.w
      value: 0
      objectReference: {fileID: 0}
    - target: {fileID: 1584073701793361349, guid: 4dd4c126fe5c55c48ad8faa0962b25a6,
        type: 3}
      propertyPath: m_LocalRotation.x
      value: -0
      objectReference: {fileID: 0}
    - target: {fileID: 1584073701793361349, guid: 4dd4c126fe5c55c48ad8faa0962b25a6,
        type: 3}
      propertyPath: m_LocalRotation.y
      value: 1
      objectReference: {fileID: 0}
    - target: {fileID: 1584073701793361349, guid: 4dd4c126fe5c55c48ad8faa0962b25a6,
        type: 3}
      propertyPath: m_LocalRotation.z
      value: -0
      objectReference: {fileID: 0}
    - target: {fileID: 1584073701793361349, guid: 4dd4c126fe5c55c48ad8faa0962b25a6,
        type: 3}
      propertyPath: m_LocalEulerAnglesHint.x
      value: 0
      objectReference: {fileID: 0}
    - target: {fileID: 1584073701793361349, guid: 4dd4c126fe5c55c48ad8faa0962b25a6,
        type: 3}
      propertyPath: m_LocalEulerAnglesHint.y
      value: 180
      objectReference: {fileID: 0}
    - target: {fileID: 1584073701793361349, guid: 4dd4c126fe5c55c48ad8faa0962b25a6,
        type: 3}
      propertyPath: m_LocalEulerAnglesHint.z
      value: 0
      objectReference: {fileID: 0}
    - target: {fileID: 2005483289359079770, guid: 4dd4c126fe5c55c48ad8faa0962b25a6,
        type: 3}
      propertyPath: m_AnchorMax.y
      value: 0
      objectReference: {fileID: 0}
    - target: {fileID: 2366569146753056105, guid: 4dd4c126fe5c55c48ad8faa0962b25a6,
        type: 3}
      propertyPath: m_Name
      value: Payaso Variant
      objectReference: {fileID: 0}
    - target: {fileID: 2496650685944238136, guid: 4dd4c126fe5c55c48ad8faa0962b25a6,
        type: 3}
      propertyPath: m_AnchorMax.y
      value: 0
      objectReference: {fileID: 0}
    - target: {fileID: 4233289392590315317, guid: 4dd4c126fe5c55c48ad8faa0962b25a6,
        type: 3}
      propertyPath: m_AnchorMax.y
      value: 0
      objectReference: {fileID: 0}
    - target: {fileID: 6074898684565662640, guid: 4dd4c126fe5c55c48ad8faa0962b25a6,
        type: 3}
      propertyPath: rangoDisparo
      value: 20
      objectReference: {fileID: 0}
    - target: {fileID: 7304731693177850682, guid: 4dd4c126fe5c55c48ad8faa0962b25a6,
        type: 3}
      propertyPath: barrahp
      value: 
      objectReference: {fileID: 8086831294931640668}
    - target: {fileID: 7305380686034320039, guid: 4dd4c126fe5c55c48ad8faa0962b25a6,
        type: 3}
      propertyPath: objetivo
      value: 
      objectReference: {fileID: 0}
    - target: {fileID: 8248422269527878288, guid: 4dd4c126fe5c55c48ad8faa0962b25a6,
        type: 3}
      propertyPath: m_AnchorMax.y
      value: 0
      objectReference: {fileID: 0}
    m_RemovedComponents:
    - {fileID: 924275571107826644, guid: 4dd4c126fe5c55c48ad8faa0962b25a6, type: 3}
    - {fileID: 1055068417404856396, guid: 4dd4c126fe5c55c48ad8faa0962b25a6, type: 3}
  m_SourcePrefab: {fileID: 100100000, guid: 4dd4c126fe5c55c48ad8faa0962b25a6, type: 3}
--- !u!114 &8086831294931640668 stripped
MonoBehaviour:
  m_CorrespondingSourceObject: {fileID: 7510408268422245041, guid: 4dd4c126fe5c55c48ad8faa0962b25a6,
    type: 3}
  m_PrefabInstance: {fileID: 1729495166124772333}
  m_PrefabAsset: {fileID: 0}
  m_GameObject: {fileID: 0}
  m_Enabled: 1
  m_EditorHideFlags: 0
  m_Script: {fileID: 11500000, guid: 67db9e8f0e2ae9c40bc1e2b64352a6b4, type: 3}
  m_Name: 
  m_EditorClassIdentifier: 
--- !u!4 &8132880210028856996 stripped
Transform:
  m_CorrespondingSourceObject: {fileID: 7556386818766949705, guid: 4dd4c126fe5c55c48ad8faa0962b25a6,
    type: 3}
  m_PrefabInstance: {fileID: 1729495166124772333}
  m_PrefabAsset: {fileID: 0}
